0,0,0,0,0,0,0,0,1,0,2,3,0,0,0,0,0,0,0,0
0,0,0,0,0,0,4,5,6,0,7,8,9,0,0,0,0,0,0,0
0,0,0,0,10,5,11,12,13,0,14,15,16,17,18,0,0,0,0,0
0,0,19,5,20,21,22,23,24,0,25,26,27,28,29,17,30,0,0,0
0,0,31,32,33,34,35,21,36,0,37,38,39,40,41,42,43,0,0,0
0,0,44,45,46,47,48,49,50,0,51,52,53,54,55,40,56,0,0,0
0,0,57,58,59,60,0,0,0,0,61,62,63,64,65,66,0,0,0,0
0,0,67,68,69,70,0,0,0,0,71,72,73,74,75,0,0,0,0,0
0,0,76,77,78,79,80,81,0,0,82,83,84,85,86,87,0,0,0,0
0,0,88,42,89,90,91,92,93,0,94,95,96,97,98,99,100,0,0,0
0,0,101,102,103,104,105,106,6,0,107,108,109,110,111,112,113,0,0,0
0,0,0,0,101,114,115,116,117,0,118,119,120,121,122,123,124,0,0,0
0,0,0,0,0,0,0,102,125,0,126,127,128,129,0,0,0,0,0,0
0,0,0,0,0,0,0,0,0,0,130,0,0,0,0,0,0,0,0,0
0,0,0,0,0,0,0,0,0,0,0,0,0,0,0,0,0,0,0,0
0,0,0,0,0,0,0,0,0,0,0,0,0,0,0,0,0,0,0,0
0,0,0,0,0,0,0,0,0,0,0,0,0,0,0,0,0,0,0,0
0,0,0,0,0,0,0,0,0,0,0,0,0,0,0,0,0,0,0,0